<?xml version="1.0" encoding="utf-8"?>
<!-- Generator: Adobe Illustrator 23.1.1, SVG Export Plug-In . SVG Version: 6.00 Build 0)  -->
<svg version="1.1" id="Слой_1" xmlns="http://www.w3.org/2000/svg" xmlns:xlink="http://www.w3.org/1999/xlink" x="0px" y="0px"
	 viewBox="0 0 90 96" style="enable-background:new 0 0 90 96;" xml:space="preserve">
<style type="text/css">
	.st0{fill:none;stroke:#000000;stroke-width:4;stroke-miterlimit:10;}
</style>
<g>
	<path class="st0" d="M34.97,53.82c0,0,2.71,2.71,3.62,3.62c3.62,3.62,3.62,3.62,0,7.24c-4.77,4.77-13.14,13.14-18.1,18.1
		c-7.24,7.24-7.24,14.48-14.48,7.24s0-7.24,7.24-14.48C34.97,53.82,85.64,3.14,85.64,3.14s11.15,18.1-30.77,59.72L44.02,52.01"/>
</g>
</svg>
